sim/bank_reg_tb.vcd
$date
  Sat Jun 16 18:19:58 2018
$end
$version
  GHDL v0
$end
$timescale
  1 fs
$end
$var reg 5 ! a_i[4:0] $end
$var reg 5 " b_i[4:0] $end
$var reg 5 # c_i[4:0] $end
$var reg 64 $ w_c_i[63:0] $end
$var reg 64 % r_a_o[63:0] $end
$var reg 64 & r_b_o[63:0] $end
$var reg 1 ' rst_i $end
$var reg 1 ( reg_w_i $end
$var reg 1 ) clk_i $end
$var reg 64 * r_a_aux[63:0] $end
$var reg 64 + r_b_aux[63:0] $end
$scope module uut $end
$var reg 5 , a_i[4:0] $end
$var reg 5 - b_i[4:0] $end
$var reg 5 . c_i[4:0] $end
$var reg 1 / reg_w_i $end
$var reg 1 0 rst_i $end
$var reg 1 1 clk_i $end
$var reg 64 2 w_c_i[63:0] $end
$var reg 64 3 r_a_o[63:0] $end
$var reg 64 4 r_b_o[63:0] $end
$comment memoria_ram is not handled $end
$upscope $end
$enddefinitions $end
#0
bUUUUU !
bUUUUU "
b00000 #
b0000000000000000000000000000000000000000000000000000000000000000 $
bUUUUUUUUUUUUUUUUUUUUUUUUUUUUUUUUUUUUUUUUUUUUUUUUUUUUUUUUUUUUUUUU %
bUUUUUUUUUUUUUUUUUUUUUUUUUUUUUUUUUUUUUUUUUUUUUUUUUUUUUUUUUUUUUUUU &
1'
1(
1)
bUUUUUUUUUUUUUUUUUUUUUUUUUUUUUUUUUUUUUUUUUUUUUUUUUUUUUUUUUUUUUUUU *
bUUUUUUUUUUUUUUUUUUUUUUUUUUUUUUUUUUUUUUUUUUUUUUUUUUUUUUUUUUUUUUUU +
bUUUUU ,
bUUUUU -
b00000 .
1/
10
11
b0000000000000000000000000000000000000000000000000000000000000000 2
bUUUUUUUUUUUUUUUUUUUUUUUUUUUUUUUUUUUUUUUUUUUUUUUUUUUUUUUUUUUUUUUU 3
bUUUUUUUUUUUUUUUUUUUUUUUUUUUUUUUUUUUUUUUUUUUUUUUUUUUUUUUUUUUUUUUU 4
#5000000
0)
01
#10000000
b0000000000000000000000000000000000000000000000000000000000000000 %
b0000000000000000000000000000000000000000000000000000000000000000 &
1)
11
b0000000000000000000000000000000000000000000000000000000000000000 3
b0000000000000000000000000000000000000000000000000000000000000000 4
#15000000
b00001 #
b0000000000000000000000000000000000000000000000000000000000000001 $
0)
b00001 .
01
b0000000000000000000000000000000000000000000000000000000000000001 2
#20000000
1)
11
#25000000
0)
01
#30000000
b00010 #
b0000000000000000000000000000000000000000000000000000000000000010 $
1)
b00010 .
11
b0000000000000000000000000000000000000000000000000000000000000010 2
#35000000
0)
01
#40000000
1)
11
#45000000
b00011 #
b0000000000000000000000000000000000000000000000000000000000000011 $
0)
b00011 .
01
b0000000000000000000000000000000000000000000000000000000000000011 2
#50000000
1)
11
#55000000
0)
01
#60000000
b00100 #
b0000000000000000000000000000000000000000000000000000000000000100 $
1)
b00100 .
11
b0000000000000000000000000000000000000000000000000000000000000100 2
#65000000
0)
01
#70000000
1)
11
#75000000
b00101 #
b0000000000000000000000000000000000000000000000000000000000000101 $
0)
b00101 .
01
b0000000000000000000000000000000000000000000000000000000000000101 2
#80000000
1)
11
#85000000
0)
01
#90000000
b00110 #
b0000000000000000000000000000000000000000000000000000000000000110 $
1)
b00110 .
11
b0000000000000000000000000000000000000000000000000000000000000110 2
#95000000
0)
01
#100000000
1)
11
#105000000
b00111 #
b0000000000000000000000000000000000000000000000000000000000000111 $
0)
b00111 .
01
b0000000000000000000000000000000000000000000000000000000000000111 2
#110000000
1)
11
#115000000
0)
01
#120000000
b01000 #
b0000000000000000000000000000000000000000000000000000000000001000 $
1)
b01000 .
11
b0000000000000000000000000000000000000000000000000000000000001000 2
#125000000
0)
01
#130000000
1)
11
#135000000
b01001 #
b0000000000000000000000000000000000000000000000000000000000001001 $
0)
b01001 .
01
b0000000000000000000000000000000000000000000000000000000000001001 2
#140000000
1)
11
#145000000
0)
01
#150000000
b01010 #
b0000000000000000000000000000000000000000000000000000000000001010 $
1)
b01010 .
11
b0000000000000000000000000000000000000000000000000000000000001010 2
#155000000
0)
01
#160000000
1)
11
#165000000
b01011 #
b0000000000000000000000000000000000000000000000000000000000001011 $
0)
b01011 .
01
b0000000000000000000000000000000000000000000000000000000000001011 2
#170000000
1)
11
#175000000
0)
01
#180000000
b01100 #
b0000000000000000000000000000000000000000000000000000000000001100 $
1)
b01100 .
11
b0000000000000000000000000000000000000000000000000000000000001100 2
#185000000
0)
01
#190000000
1)
11
#195000000
b01101 #
b0000000000000000000000000000000000000000000000000000000000001101 $
0)
b01101 .
01
b0000000000000000000000000000000000000000000000000000000000001101 2
#200000000
1)
11
#205000000
0)
01
#210000000
b01110 #
b0000000000000000000000000000000000000000000000000000000000001110 $
1)
b01110 .
11
b0000000000000000000000000000000000000000000000000000000000001110 2
#215000000
0)
01
#220000000
1)
11
#225000000
b01111 #
b0000000000000000000000000000000000000000000000000000000000001111 $
0)
b01111 .
01
b0000000000000000000000000000000000000000000000000000000000001111 2
#230000000
1)
11
#235000000
0)
01
#240000000
b10000 #
b0000000000000000000000000000000000000000000000000000000000010000 $
1)
b10000 .
11
b0000000000000000000000000000000000000000000000000000000000010000 2
#245000000
0)
01
#250000000
1)
11
#255000000
b10001 #
b0000000000000000000000000000000000000000000000000000000000010001 $
0)
b10001 .
01
b0000000000000000000000000000000000000000000000000000000000010001 2
#260000000
1)
11
#265000000
0)
01
#270000000
b10010 #
b0000000000000000000000000000000000000000000000000000000000010010 $
1)
b10010 .
11
b0000000000000000000000000000000000000000000000000000000000010010 2
#275000000
0)
01
#280000000
1)
11
#285000000
b10011 #
b0000000000000000000000000000000000000000000000000000000000010011 $
0)
b10011 .
01
b0000000000000000000000000000000000000000000000000000000000010011 2
#290000000
1)
11
#295000000
0)
01
#300000000
b10100 #
b0000000000000000000000000000000000000000000000000000000000010100 $
1)
b10100 .
11
b0000000000000000000000000000000000000000000000000000000000010100 2
#305000000
0)
01
#310000000
1)
11
#315000000
b10101 #
b0000000000000000000000000000000000000000000000000000000000010101 $
0)
b10101 .
01
b0000000000000000000000000000000000000000000000000000000000010101 2
#320000000
1)
11
#325000000
0)
01
#330000000
b10110 #
b0000000000000000000000000000000000000000000000000000000000010110 $
1)
b10110 .
11
b0000000000000000000000000000000000000000000000000000000000010110 2
#335000000
0)
01
#340000000
1)
11
#345000000
b10111 #
b0000000000000000000000000000000000000000000000000000000000010111 $
0)
b10111 .
01
b0000000000000000000000000000000000000000000000000000000000010111 2
#350000000
1)
11
#355000000
0)
01
#360000000
b11000 #
b0000000000000000000000000000000000000000000000000000000000011000 $
1)
b11000 .
11
b0000000000000000000000000000000000000000000000000000000000011000 2
#365000000
0)
01
#370000000
1)
11
#375000000
b11001 #
b0000000000000000000000000000000000000000000000000000000000011001 $
0)
b11001 .
01
b0000000000000000000000000000000000000000000000000000000000011001 2
#380000000
1)
11
#385000000
0)
01
#390000000
b11010 #
b0000000000000000000000000000000000000000000000000000000000011010 $
1)
b11010 .
11
b0000000000000000000000000000000000000000000000000000000000011010 2
#395000000
0)
01
#400000000
1)
11
#405000000
b11011 #
b0000000000000000000000000000000000000000000000000000000000011011 $
0)
b11011 .
01
b0000000000000000000000000000000000000000000000000000000000011011 2
#410000000
1)
11
#415000000
0)
01
#420000000
b11100 #
b0000000000000000000000000000000000000000000000000000000000011100 $
1)
b11100 .
11
b0000000000000000000000000000000000000000000000000000000000011100 2
#425000000
0)
01
#430000000
1)
11
#435000000
b11101 #
b0000000000000000000000000000000000000000000000000000000000011101 $
0)
b11101 .
01
b0000000000000000000000000000000000000000000000000000000000011101 2
#440000000
1)
11
#445000000
0)
01
#450000000
b11110 #
b0000000000000000000000000000000000000000000000000000000000011110 $
1)
b11110 .
11
b0000000000000000000000000000000000000000000000000000000000011110 2
#455000000
0)
01
#460000000
1)
11
#465000000
b11111 #
b0000000000000000000000000000000000000000000000000000000000011111 $
0)
b11111 .
01
b0000000000000000000000000000000000000000000000000000000000011111 2
#470000000
1)
11
#475000000
0)
01
#480000000
b00000 !
b00000 "
0(
1)
b0000000000000000000000000000000000000000000000000000000000000000 *
b0000000000000000000000000000000000000000000000000000000000000000 +
b00000 ,
b00000 -
0/
11
#485000000
0)
01
#490000000
1)
11
#495000000
0)
01
#500000000
1)
11
#505000000
0)
01
#510000000
b00001 !
b00001 "
b0000000000000000000000000000000000000000000000000000000000000001 %
b0000000000000000000000000000000000000000000000000000000000000001 &
1)
b0000000000000000000000000000000000000000000000000000000000000001 *
b0000000000000000000000000000000000000000000000000000000000000001 +
b00001 ,
b00001 -
11
b0000000000000000000000000000000000000000000000000000000000000001 3
b0000000000000000000000000000000000000000000000000000000000000001 4
#515000000
0)
01
#520000000
1)
11
#525000000
0)
01
#530000000
1)
11
#535000000
0)
01
#540000000
b00010 !
b00010 "
b0000000000000000000000000000000000000000000000000000000000000010 %
b0000000000000000000000000000000000000000000000000000000000000010 &
1)
b0000000000000000000000000000000000000000000000000000000000000010 *
b0000000000000000000000000000000000000000000000000000000000000010 +
b00010 ,
b00010 -
11
b0000000000000000000000000000000000000000000000000000000000000010 3
b0000000000000000000000000000000000000000000000000000000000000010 4
#545000000
0)
01
#550000000
1)
11
#555000000
0)
01
#560000000
1)
11
#565000000
0)
01
#570000000
b00011 !
b00011 "
b0000000000000000000000000000000000000000000000000000000000000011 %
b0000000000000000000000000000000000000000000000000000000000000011 &
1)
b0000000000000000000000000000000000000000000000000000000000000011 *
b0000000000000000000000000000000000000000000000000000000000000011 +
b00011 ,
b00011 -
11
b0000000000000000000000000000000000000000000000000000000000000011 3
b0000000000000000000000000000000000000000000000000000000000000011 4
#575000000
0)
01
#580000000
1)
11
#585000000
0)
01
#590000000
1)
11
#595000000
0)
01
#600000000
b00100 !
b00100 "
b0000000000000000000000000000000000000000000000000000000000000100 %
b0000000000000000000000000000000000000000000000000000000000000100 &
1)
b0000000000000000000000000000000000000000000000000000000000000100 *
b0000000000000000000000000000000000000000000000000000000000000100 +
b00100 ,
b00100 -
11
b0000000000000000000000000000000000000000000000000000000000000100 3
b0000000000000000000000000000000000000000000000000000000000000100 4
#605000000
0)
01
#610000000
1)
11
#615000000
0)
01
#620000000
1)
11
#625000000
0)
01
#630000000
b00101 !
b00101 "
b0000000000000000000000000000000000000000000000000000000000000101 %
b0000000000000000000000000000000000000000000000000000000000000101 &
1)
b0000000000000000000000000000000000000000000000000000000000000101 *
b0000000000000000000000000000000000000000000000000000000000000101 +
b00101 ,
b00101 -
11
b0000000000000000000000000000000000000000000000000000000000000101 3
b0000000000000000000000000000000000000000000000000000000000000101 4
#635000000
0)
01
#640000000
1)
11
#645000000
0)
01
#650000000
1)
11
#655000000
0)
01
#660000000
b00110 !
b00110 "
b0000000000000000000000000000000000000000000000000000000000000110 %
b0000000000000000000000000000000000000000000000000000000000000110 &
1)
b0000000000000000000000000000000000000000000000000000000000000110 *
b0000000000000000000000000000000000000000000000000000000000000110 +
b00110 ,
b00110 -
11
b0000000000000000000000000000000000000000000000000000000000000110 3
b0000000000000000000000000000000000000000000000000000000000000110 4
#665000000
0)
01
#670000000
1)
11
#675000000
0)
01
#680000000
1)
11
#685000000
0)
01
#690000000
b00111 !
b00111 "
b0000000000000000000000000000000000000000000000000000000000000111 %
b0000000000000000000000000000000000000000000000000000000000000111 &
1)
b0000000000000000000000000000000000000000000000000000000000000111 *
b0000000000000000000000000000000000000000000000000000000000000111 +
b00111 ,
b00111 -
11
b0000000000000000000000000000000000000000000000000000000000000111 3
b0000000000000000000000000000000000000000000000000000000000000111 4
#695000000
0)
01
#700000000
1)
11
#705000000
0)
01
#710000000
1)
11
#715000000
0)
01
#720000000
b01000 !
b01000 "
b0000000000000000000000000000000000000000000000000000000000001000 %
b0000000000000000000000000000000000000000000000000000000000001000 &
1)
b0000000000000000000000000000000000000000000000000000000000001000 *
b0000000000000000000000000000000000000000000000000000000000001000 +
b01000 ,
b01000 -
11
b0000000000000000000000000000000000000000000000000000000000001000 3
b0000000000000000000000000000000000000000000000000000000000001000 4
#725000000
0)
01
#730000000
1)
11
#735000000
0)
01
#740000000
1)
11
#745000000
0)
01
#750000000
b01001 !
b01001 "
b0000000000000000000000000000000000000000000000000000000000001001 %
b0000000000000000000000000000000000000000000000000000000000001001 &
1)
b0000000000000000000000000000000000000000000000000000000000001001 *
b0000000000000000000000000000000000000000000000000000000000001001 +
b01001 ,
b01001 -
11
b0000000000000000000000000000000000000000000000000000000000001001 3
b0000000000000000000000000000000000000000000000000000000000001001 4
#755000000
0)
01
#760000000
1)
11
#765000000
0)
01
#770000000
1)
11
#775000000
0)
01
#780000000
b01010 !
b01010 "
b0000000000000000000000000000000000000000000000000000000000001010 %
b0000000000000000000000000000000000000000000000000000000000001010 &
1)
b0000000000000000000000000000000000000000000000000000000000001010 *
b0000000000000000000000000000000000000000000000000000000000001010 +
b01010 ,
b01010 -
11
b0000000000000000000000000000000000000000000000000000000000001010 3
b0000000000000000000000000000000000000000000000000000000000001010 4
#785000000
0)
01
#790000000
1)
11
#795000000
0)
01
#800000000
1)
11
#805000000
0)
01
#810000000
b01011 !
b01011 "
b0000000000000000000000000000000000000000000000000000000000001011 %
b0000000000000000000000000000000000000000000000000000000000001011 &
1)
b0000000000000000000000000000000000000000000000000000000000001011 *
b0000000000000000000000000000000000000000000000000000000000001011 +
b01011 ,
b01011 -
11
b0000000000000000000000000000000000000000000000000000000000001011 3
b0000000000000000000000000000000000000000000000000000000000001011 4
#815000000
0)
01
#820000000
1)
11
#825000000
0)
01
#830000000
1)
11
#835000000
0)
01
#840000000
b01100 !
b01100 "
b0000000000000000000000000000000000000000000000000000000000001100 %
b0000000000000000000000000000000000000000000000000000000000001100 &
1)
b0000000000000000000000000000000000000000000000000000000000001100 *
b0000000000000000000000000000000000000000000000000000000000001100 +
b01100 ,
b01100 -
11
b0000000000000000000000000000000000000000000000000000000000001100 3
b0000000000000000000000000000000000000000000000000000000000001100 4
#845000000
0)
01
#850000000
1)
11
#855000000
0)
01
#860000000
1)
11
#865000000
0)
01
#870000000
b01101 !
b01101 "
b0000000000000000000000000000000000000000000000000000000000001101 %
b0000000000000000000000000000000000000000000000000000000000001101 &
1)
b0000000000000000000000000000000000000000000000000000000000001101 *
b0000000000000000000000000000000000000000000000000000000000001101 +
b01101 ,
b01101 -
11
b0000000000000000000000000000000000000000000000000000000000001101 3
b0000000000000000000000000000000000000000000000000000000000001101 4
#875000000
0)
01
#880000000
1)
11
#885000000
0)
01
#890000000
1)
11
#895000000
0)
01
#900000000
b01110 !
b01110 "
b0000000000000000000000000000000000000000000000000000000000001110 %
b0000000000000000000000000000000000000000000000000000000000001110 &
1)
b0000000000000000000000000000000000000000000000000000000000001110 *
b0000000000000000000000000000000000000000000000000000000000001110 +
b01110 ,
b01110 -
11
b0000000000000000000000000000000000000000000000000000000000001110 3
b0000000000000000000000000000000000000000000000000000000000001110 4
#905000000
0)
01
#910000000
1)
11
#915000000
0)
01
#920000000
1)
11
#925000000
0)
01
#930000000
b01111 !
b01111 "
b0000000000000000000000000000000000000000000000000000000000001111 %
b0000000000000000000000000000000000000000000000000000000000001111 &
1)
b0000000000000000000000000000000000000000000000000000000000001111 *
b0000000000000000000000000000000000000000000000000000000000001111 +
b01111 ,
b01111 -
11
b0000000000000000000000000000000000000000000000000000000000001111 3
b0000000000000000000000000000000000000000000000000000000000001111 4
#935000000
0)
01
#940000000
1)
11
#945000000
0)
01
#950000000
1)
11
#955000000
0)
01
#960000000
b10000 !
b10000 "
b0000000000000000000000000000000000000000000000000000000000010000 %
b0000000000000000000000000000000000000000000000000000000000010000 &
1)
b0000000000000000000000000000000000000000000000000000000000010000 *
b0000000000000000000000000000000000000000000000000000000000010000 +
b10000 ,
b10000 -
11
b0000000000000000000000000000000000000000000000000000000000010000 3
b0000000000000000000000000000000000000000000000000000000000010000 4
#965000000
0)
01
#970000000
1)
11
#975000000
0)
01
#980000000
1)
11
#985000000
0)
01
#990000000
b10001 !
b10001 "
b0000000000000000000000000000000000000000000000000000000000010001 %
b0000000000000000000000000000000000000000000000000000000000010001 &
1)
b0000000000000000000000000000000000000000000000000000000000010001 *
b0000000000000000000000000000000000000000000000000000000000010001 +
b10001 ,
b10001 -
11
b0000000000000000000000000000000000000000000000000000000000010001 3
b0000000000000000000000000000000000000000000000000000000000010001 4
#995000000
0)
01
#1000000000
1)
11
#1005000000
0)
01
#1010000000
1)
11
#1015000000
0)
01
#1020000000
b10010 !
b10010 "
b0000000000000000000000000000000000000000000000000000000000010010 %
b0000000000000000000000000000000000000000000000000000000000010010 &
1)
b0000000000000000000000000000000000000000000000000000000000010010 *
b0000000000000000000000000000000000000000000000000000000000010010 +
b10010 ,
b10010 -
11
b0000000000000000000000000000000000000000000000000000000000010010 3
b0000000000000000000000000000000000000000000000000000000000010010 4
#1025000000
0)
01
#1030000000
1)
11
#1035000000
0)
01
#1040000000
1)
11
#1045000000
0)
01
#1050000000
b10011 !
b10011 "
b0000000000000000000000000000000000000000000000000000000000010011 %
b0000000000000000000000000000000000000000000000000000000000010011 &
1)
b0000000000000000000000000000000000000000000000000000000000010011 *
b0000000000000000000000000000000000000000000000000000000000010011 +
b10011 ,
b10011 -
11
b0000000000000000000000000000000000000000000000000000000000010011 3
b0000000000000000000000000000000000000000000000000000000000010011 4
#1055000000
0)
01
#1060000000
1)
11
#1065000000
0)
01
#1070000000
1)
11
#1075000000
0)
01
#1080000000
b10100 !
b10100 "
b0000000000000000000000000000000000000000000000000000000000010100 %
b0000000000000000000000000000000000000000000000000000000000010100 &
1)
b0000000000000000000000000000000000000000000000000000000000010100 *
b0000000000000000000000000000000000000000000000000000000000010100 +
b10100 ,
b10100 -
11
b0000000000000000000000000000000000000000000000000000000000010100 3
b0000000000000000000000000000000000000000000000000000000000010100 4
#1085000000
0)
01
#1090000000
1)
11
#1095000000
0)
01
#1100000000
1)
11
#1105000000
0)
01
#1110000000
b10101 !
b10101 "
b0000000000000000000000000000000000000000000000000000000000010101 %
b0000000000000000000000000000000000000000000000000000000000010101 &
1)
b0000000000000000000000000000000000000000000000000000000000010101 *
b0000000000000000000000000000000000000000000000000000000000010101 +
b10101 ,
b10101 -
11
b0000000000000000000000000000000000000000000000000000000000010101 3
b0000000000000000000000000000000000000000000000000000000000010101 4
#1115000000
0)
01
#1120000000
1)
11
#1125000000
0)
01
#1130000000
1)
11
#1135000000
0)
01
#1140000000
b10110 !
b10110 "
b0000000000000000000000000000000000000000000000000000000000010110 %
b0000000000000000000000000000000000000000000000000000000000010110 &
1)
b0000000000000000000000000000000000000000000000000000000000010110 *
b0000000000000000000000000000000000000000000000000000000000010110 +
b10110 ,
b10110 -
11
b0000000000000000000000000000000000000000000000000000000000010110 3
b0000000000000000000000000000000000000000000000000000000000010110 4
#1145000000
0)
01
#1150000000
1)
11
#1155000000
0)
01
#1160000000
1)
11
#1165000000
0)
01
#1170000000
b10111 !
b10111 "
b0000000000000000000000000000000000000000000000000000000000010111 %
b0000000000000000000000000000000000000000000000000000000000010111 &
1)
b0000000000000000000000000000000000000000000000000000000000010111 *
b0000000000000000000000000000000000000000000000000000000000010111 +
b10111 ,
b10111 -
11
b0000000000000000000000000000000000000000000000000000000000010111 3
b0000000000000000000000000000000000000000000000000000000000010111 4
#1175000000
0)
01
#1180000000
1)
11
#1185000000
0)
01
#1190000000
1)
11
#1195000000
0)
01
#1200000000
b11000 !
b11000 "
b0000000000000000000000000000000000000000000000000000000000011000 %
b0000000000000000000000000000000000000000000000000000000000011000 &
1)
b0000000000000000000000000000000000000000000000000000000000011000 *
b0000000000000000000000000000000000000000000000000000000000011000 +
b11000 ,
b11000 -
11
b0000000000000000000000000000000000000000000000000000000000011000 3
b0000000000000000000000000000000000000000000000000000000000011000 4
#1205000000
0)
01
#1210000000
1)
11
#1215000000
0)
01
#1220000000
1)
11
#1225000000
0)
01
#1230000000
b11001 !
b11001 "
b0000000000000000000000000000000000000000000000000000000000011001 %
b0000000000000000000000000000000000000000000000000000000000011001 &
1)
b0000000000000000000000000000000000000000000000000000000000011001 *
b0000000000000000000000000000000000000000000000000000000000011001 +
b11001 ,
b11001 -
11
b0000000000000000000000000000000000000000000000000000000000011001 3
b0000000000000000000000000000000000000000000000000000000000011001 4
#1235000000
0)
01
#1240000000
1)
11
#1245000000
0)
01
#1250000000
1)
11
#1255000000
0)
01
#1260000000
b11010 !
b11010 "
b0000000000000000000000000000000000000000000000000000000000011010 %
b0000000000000000000000000000000000000000000000000000000000011010 &
1)
b0000000000000000000000000000000000000000000000000000000000011010 *
b0000000000000000000000000000000000000000000000000000000000011010 +
b11010 ,
b11010 -
11
b0000000000000000000000000000000000000000000000000000000000011010 3
b0000000000000000000000000000000000000000000000000000000000011010 4
#1265000000
0)
01
#1270000000
1)
11
#1275000000
0)
01
#1280000000
1)
11
#1285000000
0)
01
#1290000000
b11011 !
b11011 "
b0000000000000000000000000000000000000000000000000000000000011011 %
b0000000000000000000000000000000000000000000000000000000000011011 &
1)
b0000000000000000000000000000000000000000000000000000000000011011 *
b0000000000000000000000000000000000000000000000000000000000011011 +
b11011 ,
b11011 -
11
b0000000000000000000000000000000000000000000000000000000000011011 3
b0000000000000000000000000000000000000000000000000000000000011011 4
#1295000000
0)
01
#1300000000
1)
11
#1305000000
0)
01
#1310000000
1)
11
#1315000000
0)
01
#1320000000
b11100 !
b11100 "
b0000000000000000000000000000000000000000000000000000000000011100 %
b0000000000000000000000000000000000000000000000000000000000011100 &
1)
b0000000000000000000000000000000000000000000000000000000000011100 *
b0000000000000000000000000000000000000000000000000000000000011100 +
b11100 ,
b11100 -
11
b0000000000000000000000000000000000000000000000000000000000011100 3
b0000000000000000000000000000000000000000000000000000000000011100 4
#1325000000
0)
01
#1330000000
1)
11
#1335000000
0)
01
#1340000000
1)
11
#1345000000
0)
01
#1350000000
b11101 !
b11101 "
b0000000000000000000000000000000000000000000000000000000000011101 %
b0000000000000000000000000000000000000000000000000000000000011101 &
1)
b0000000000000000000000000000000000000000000000000000000000011101 *
b0000000000000000000000000000000000000000000000000000000000011101 +
b11101 ,
b11101 -
11
b0000000000000000000000000000000000000000000000000000000000011101 3
b0000000000000000000000000000000000000000000000000000000000011101 4
#1355000000
0)
01
#1360000000
1)
11
#1365000000
0)
01
#1370000000
1)
11
#1375000000
0)
01
#1380000000
b11110 !
b11110 "
b0000000000000000000000000000000000000000000000000000000000011110 %
b0000000000000000000000000000000000000000000000000000000000011110 &
1)
b0000000000000000000000000000000000000000000000000000000000011110 *
b0000000000000000000000000000000000000000000000000000000000011110 +
b11110 ,
b11110 -
11
b0000000000000000000000000000000000000000000000000000000000011110 3
b0000000000000000000000000000000000000000000000000000000000011110 4
#1385000000
0)
01
#1390000000
1)
11
#1395000000
0)
01
#1400000000
1)
11
#1405000000
0)
01
#1410000000
b11111 !
b11111 "
b0000000000000000000000000000000000000000000000000000000000011111 %
b0000000000000000000000000000000000000000000000000000000000011111 &
1)
b0000000000000000000000000000000000000000000000000000000000011111 *
b0000000000000000000000000000000000000000000000000000000000011111 +
b11111 ,
b11111 -
11
b0000000000000000000000000000000000000000000000000000000000011111 3
b0000000000000000000000000000000000000000000000000000000000011111 4
#1415000000
0)
01
#1420000000
1)
11
#1425000000
0)
01
#1430000000
1)
11
#1435000000
0)
01
#1440000000
b0000000000000000000000000000000000000000000000000000000000000000 %
b0000000000000000000000000000000000000000000000000000000000000000 &
0'
1)
00
11
b0000000000000000000000000000000000000000000000000000000000000000 3
b0000000000000000000000000000000000000000000000000000000000000000 4
#1445000000
0)
01
#1450000000
1)
11
#1455000000
b00000 !
b00000 "
1'
0)
b0000000000000000000000000000000000000000000000000000000000000000 *
b0000000000000000000000000000000000000000000000000000000000000000 +
b00000 ,
b00000 -
10
01
#1460000000
1)
11
#1465000000
0)
01
#1470000000
b00001 !
b00001 "
1)
b00001 ,
b00001 -
11
#1475000000
0)
01
#1480000000
1)
11
#1485000000
b00010 !
b00010 "
0)
b00010 ,
b00010 -
01
#1490000000
1)
11
#1495000000
0)
01
#1500000000
b00011 !
b00011 "
1)
b00011 ,
b00011 -
11
#1505000000
0)
01
#1510000000
1)
11
#1515000000
b00100 !
b00100 "
0)
b00100 ,
b00100 -
01
#1520000000
1)
11
#1525000000
0)
01
#1530000000
b00101 !
b00101 "
1)
b00101 ,
b00101 -
11
#1535000000
0)
01
#1540000000
1)
11
#1545000000
b00110 !
b00110 "
0)
b00110 ,
b00110 -
01
#1550000000
1)
11
#1555000000
0)
01
#1560000000
b00111 !
b00111 "
1)
b00111 ,
b00111 -
11
#1565000000
0)
01
#1570000000
1)
11
#1575000000
b01000 !
b01000 "
0)
b01000 ,
b01000 -
01
#1580000000
1)
11
#1585000000
0)
01
#1590000000
b01001 !
b01001 "
1)
b01001 ,
b01001 -
11
#1595000000
0)
01
#1600000000
1)
11
#1605000000
b01010 !
b01010 "
0)
b01010 ,
b01010 -
01
#1610000000
1)
11
#1615000000
0)
01
#1620000000
b01011 !
b01011 "
1)
b01011 ,
b01011 -
11
#1625000000
0)
01
#1630000000
1)
11
#1635000000
b01100 !
b01100 "
0)
b01100 ,
b01100 -
01
#1640000000
1)
11
#1645000000
0)
01
#1650000000
b01101 !
b01101 "
1)
b01101 ,
b01101 -
11
#1655000000
0)
01
#1660000000
1)
11
#1665000000
b01110 !
b01110 "
0)
b01110 ,
b01110 -
01
#1670000000
1)
11
#1675000000
0)
01
#1680000000
b01111 !
b01111 "
1)
b01111 ,
b01111 -
11
#1685000000
0)
01
#1690000000
1)
11
#1695000000
b10000 !
b10000 "
0)
b10000 ,
b10000 -
01
#1700000000
1)
11
#1705000000
0)
01
#1710000000
b10001 !
b10001 "
1)
b10001 ,
b10001 -
11
#1715000000
0)
01
#1720000000
1)
11
#1725000000
b10010 !
b10010 "
0)
b10010 ,
b10010 -
01
#1730000000
1)
11
#1735000000
0)
01
#1740000000
b10011 !
b10011 "
1)
b10011 ,
b10011 -
11
#1745000000
0)
01
#1750000000
1)
11
#1755000000
b10100 !
b10100 "
0)
b10100 ,
b10100 -
01
#1760000000
1)
11
#1765000000
0)
01
#1770000000
b10101 !
b10101 "
1)
b10101 ,
b10101 -
11
#1775000000
0)
01
#1780000000
1)
11
#1785000000
b10110 !
b10110 "
0)
b10110 ,
b10110 -
01
#1790000000
1)
11
#1795000000
0)
01
#1800000000
b10111 !
b10111 "
1)
b10111 ,
b10111 -
11
#1805000000
0)
01
#1810000000
1)
11
#1815000000
b11000 !
b11000 "
0)
b11000 ,
b11000 -
01
#1820000000
1)
11
#1825000000
0)
01
#1830000000
b11001 !
b11001 "
1)
b11001 ,
b11001 -
11
#1835000000
0)
01
#1840000000
1)
11
#1845000000
b11010 !
b11010 "
0)
b11010 ,
b11010 -
01
#1850000000
1)
11
#1855000000
0)
01
#1860000000
b11011 !
b11011 "
1)
b11011 ,
b11011 -
11
#1865000000
0)
01
#1870000000
1)
11
#1875000000
b11100 !
b11100 "
0)
b11100 ,
b11100 -
01
#1880000000
1)
11
#1885000000
0)
01
#1890000000
b11101 !
b11101 "
1)
b11101 ,
b11101 -
11
#1895000000
0)
01
#1900000000
1)
11
#1905000000
b11110 !
b11110 "
0)
b11110 ,
b11110 -
01
#1910000000
1)
11
#1915000000
0)
01
#1920000000
b11111 !
b11111 "
1)
b11111 ,
b11111 -
11
